---
http_interactions:
- request:
    method: post
    uri: https://www.bookingsync.com/api/v3/rentals/search
    body:
      encoding: UTF-8
      string: '{"per_page":1}'
    headers:
      User-Agent:
      - BookingSync API gem v0.1.3
      Accept:
      - application/vnd.api+json
      Content-Type:
      - application/vnd.api+json
      Authorization:
      - Bearer <<ACCESS_TOKEN>>
      Accept-Encoding:
      - gzip;q=1.0,deflate;q=0.6,identity;q=0.3
  response:
    status:
      code: 200
      message: OK
    headers:
      Server:
      - nginx
      Date:
      - Fri, 09 Dec 2016 10:31:24 GMT
      Content-Type:
      - application/vnd.api+json; charset=utf-8
      Transfer-Encoding:
      - chunked
      Connection:
      - keep-alive
      Status:
      - 200 OK
      X-Frame-Options:
      - SAMEORIGIN
      X-Xss-Protection:
      - 1; mode=block
      X-Content-Type-Options:
      - nosniff
      X-Updated-Since-Request-Synced-At:
      - 2016-12-09 10:31:23 UTC
      X-Ratelimit-Limit:
      - '1000'
      X-Ratelimit-Reset:
      - '1481281200'
      X-Ratelimit-Remaining:
      - '960'
      Link:
      - <https://www.bookingsync.com/api/v3/rentals/search?page=1&per_page=1>; rel="first",
        <https://www.bookingsync.com/api/v3/rentals/search?page=2&per_page=1>; rel="next",
        <https://www.bookingsync.com/api/v3/rentals/search?page=4&per_page=1>; rel="last"
      X-Total-Pages:
      - '4'
      X-Total-Count:
      - '4'
      X-Per-Page:
      - '1'
      Etag:
      - W/"396406efe517c71f638073cca561522a"
      Cache-Control:
      - max-age=0, private, must-revalidate
      P3p:
      - CP="OTI DSP COR CUR ADMo DEVo TAI PSAi PSDi IVAi IVDi CONi HISi TELi OTPi
        OUR SAMi OTRo UNRo PUBi IND UNI STA"
      Set-Cookie:
      - ahoy_track=true; path=/; secure
      - ahoy_visit=d6d9b4ba-3cec-4ea3-bf77-561ab8264a7d; path=/; expires=Fri, 16 Dec
        2016 10:31:23 -0000; secure
      - ahoy_visitor=ffa5f4c4-9b60-41f8-9b3e-354673e2df2e; path=/; expires=Sun, 09
        Dec 2018 10:31:23 -0000; secure
      X-Request-Id:
      - c9018289-a8d7-45ee-a16f-b80b98b61896
      X-Runtime:
      - '0.609944'
      Strict-Transport-Security:
      - max-age=31536000
    body:
      encoding: UTF-8
      string: '{"links":{"rentals.rentals_fees":"https://www.bookingsync.com/api/v3/rentals_fees/{rentals.rentals_fees}"},"rentals":[{"links":{"rentals_fees":[]},"id":5116,"currency":"USD","initial_price":null,"final_price":null,"updated_at":"2016-12-09T10:31:03Z","taxes":[],"price_details":{"taxes":[],"fees":[]},"price_to_pay_now":null}]}'
    http_version: 
  recorded_at: Fri, 09 Dec 2016 10:31:24 GMT
- request:
    method: post
    uri: https://www.bookingsync.com/api/v3/rentals/search?page=2&per_page=1
    body:
      encoding: UTF-8
      string: "{}"
    headers:
      User-Agent:
      - BookingSync API gem v0.1.3
      Accept:
      - application/vnd.api+json
      Content-Type:
      - application/vnd.api+json
      Authorization:
      - Bearer <<ACCESS_TOKEN>>
      Accept-Encoding:
      - gzip;q=1.0,deflate;q=0.6,identity;q=0.3
  response:
    status:
      code: 200
      message: OK
    headers:
      Server:
      - nginx
      Date:
      - Fri, 09 Dec 2016 10:31:24 GMT
      Content-Type:
      - application/vnd.api+json; charset=utf-8
      Transfer-Encoding:
      - chunked
      Connection:
      - keep-alive
      Status:
      - 200 OK
      X-Frame-Options:
      - SAMEORIGIN
      X-Xss-Protection:
      - 1; mode=block
      X-Content-Type-Options:
      - nosniff
      X-Updated-Since-Request-Synced-At:
      - 2016-12-09 10:31:24 UTC
      X-Ratelimit-Limit:
      - '1000'
      X-Ratelimit-Reset:
      - '1481281200'
      X-Ratelimit-Remaining:
      - '959'
      Link:
      - <https://www.bookingsync.com/api/v3/rentals/search?page=1&per_page=1>; rel="first",
        <https://www.bookingsync.com/api/v3/rentals/search?page=1&per_page=1>; rel="prev",
        <https://www.bookingsync.com/api/v3/rentals/search?page=3&per_page=1>; rel="next",
        <https://www.bookingsync.com/api/v3/rentals/search?page=4&per_page=1>; rel="last"
      X-Total-Pages:
      - '4'
      X-Total-Count:
      - '4'
      X-Per-Page:
      - '1'
      Etag:
      - W/"215b2ebcbbadfc8b352d423b77948bfc"
      Cache-Control:
      - max-age=0, private, must-revalidate
      P3p:
      - CP="OTI DSP COR CUR ADMo DEVo TAI PSAi PSDi IVAi IVDi CONi HISi TELi OTPi
        OUR SAMi OTRo UNRo PUBi IND UNI STA"
      Set-Cookie:
      - ahoy_track=true; path=/; secure
      - ahoy_visit=88f92332-cd61-4643-86c7-fa9e89bd46e5; path=/; expires=Fri, 16 Dec
        2016 10:31:24 -0000; secure
      - ahoy_visitor=33e2e723-f60f-402e-9f4b-f07ae9cbdabf; path=/; expires=Sun, 09
        Dec 2018 10:31:24 -0000; secure
      X-Request-Id:
      - ff0d8d9b-34ab-4887-ad51-f8bf0c2d93ec
      X-Runtime:
      - '0.134258'
      Strict-Transport-Security:
      - max-age=31536000
    body:
      encoding: UTF-8
      string: '{"links":{"rentals.rentals_fees":"https://www.bookingsync.com/api/v3/rentals_fees/{rentals.rentals_fees}"},"rentals":[{"links":{"rentals_fees":[]},"id":5117,"currency":"EUR","initial_price":null,"final_price":null,"updated_at":"2016-12-09T10:31:03Z","taxes":[],"price_details":{"taxes":[],"fees":[]},"price_to_pay_now":null}]}'
    http_version: 
  recorded_at: Fri, 09 Dec 2016 10:31:24 GMT
- request:
    method: post
    uri: https://www.bookingsync.com/api/v3/rentals/search?page=3&per_page=1
    body:
      encoding: UTF-8
      string: "{}"
    headers:
      User-Agent:
      - BookingSync API gem v0.1.3
      Accept:
      - application/vnd.api+json
      Content-Type:
      - application/vnd.api+json
      Authorization:
      - Bearer <<ACCESS_TOKEN>>
      Accept-Encoding:
      - gzip;q=1.0,deflate;q=0.6,identity;q=0.3
  response:
    status:
      code: 200
      message: OK
    headers:
      Server:
      - nginx
      Date:
      - Fri, 09 Dec 2016 10:31:25 GMT
      Content-Type:
      - application/vnd.api+json; charset=utf-8
      Transfer-Encoding:
      - chunked
      Connection:
      - keep-alive
      Status:
      - 200 OK
      X-Frame-Options:
      - SAMEORIGIN
      X-Xss-Protection:
      - 1; mode=block
      X-Content-Type-Options:
      - nosniff
      X-Updated-Since-Request-Synced-At:
      - 2016-12-09 10:31:25 UTC
      X-Ratelimit-Limit:
      - '1000'
      X-Ratelimit-Reset:
      - '1481281200'
      X-Ratelimit-Remaining:
      - '958'
      Link:
      - <https://www.bookingsync.com/api/v3/rentals/search?page=1&per_page=1>; rel="first",
        <https://www.bookingsync.com/api/v3/rentals/search?page=2&per_page=1>; rel="prev",
        <https://www.bookingsync.com/api/v3/rentals/search?page=4&per_page=1>; rel="next",
        <https://www.bookingsync.com/api/v3/rentals/search?page=4&per_page=1>; rel="last"
      X-Total-Pages:
      - '4'
      X-Total-Count:
      - '4'
      X-Per-Page:
      - '1'
      Etag:
      - W/"24697a451a90174c1f3702f5511c9873"
      Cache-Control:
      - max-age=0, private, must-revalidate
      P3p:
      - CP="OTI DSP COR CUR ADMo DEVo TAI PSAi PSDi IVAi IVDi CONi HISi TELi OTPi
        OUR SAMi OTRo UNRo PUBi IND UNI STA"
      Set-Cookie:
      - ahoy_track=true; path=/; secure
      - ahoy_visit=aee7ac20-a03f-41d9-bf18-4ab059ec2416; path=/; expires=Fri, 16 Dec
        2016 10:31:25 -0000; secure
      - ahoy_visitor=4d8f9e81-8005-412c-b13c-a4d86a8e7250; path=/; expires=Sun, 09
        Dec 2018 10:31:25 -0000; secure
      X-Request-Id:
      - a981c661-f7d9-40ad-b300-85def0285eac
      X-Runtime:
      - '0.136798'
      Strict-Transport-Security:
      - max-age=31536000
    body:
      encoding: UTF-8
      string: '{"links":{"rentals.rentals_fees":"https://www.bookingsync.com/api/v3/rentals_fees/{rentals.rentals_fees}"},"rentals":[{"links":{"rentals_fees":[]},"id":12216,"currency":"EUR","initial_price":null,"final_price":null,"updated_at":"2016-12-07T12:35:09Z","taxes":[],"price_details":{"taxes":[],"fees":[]},"price_to_pay_now":null}]}'
    http_version: 
  recorded_at: Fri, 09 Dec 2016 10:31:25 GMT
- request:
    method: post
    uri: https://www.bookingsync.com/api/v3/rentals/search?page=4&per_page=1
    body:
      encoding: UTF-8
      string: "{}"
    headers:
      User-Agent:
      - BookingSync API gem v0.1.3
      Accept:
      - application/vnd.api+json
      Content-Type:
      - application/vnd.api+json
      Authorization:
      - Bearer <<ACCESS_TOKEN>>
      Accept-Encoding:
      - gzip;q=1.0,deflate;q=0.6,identity;q=0.3
  response:
    status:
      code: 200
      message: OK
    headers:
      Server:
      - nginx
      Date:
      - Fri, 09 Dec 2016 10:31:25 GMT
      Content-Type:
      - application/vnd.api+json; charset=utf-8
      Transfer-Encoding:
      - chunked
      Connection:
      - keep-alive
      Status:
      - 200 OK
      X-Frame-Options:
      - SAMEORIGIN
      X-Xss-Protection:
      - 1; mode=block
      X-Content-Type-Options:
      - nosniff
      X-Updated-Since-Request-Synced-At:
      - 2016-12-09 10:31:25 UTC
      X-Ratelimit-Limit:
      - '1000'
      X-Ratelimit-Reset:
      - '1481281200'
      X-Ratelimit-Remaining:
      - '957'
      Link:
      - <https://www.bookingsync.com/api/v3/rentals/search?page=1&per_page=1>; rel="first",
        <https://www.bookingsync.com/api/v3/rentals/search?page=3&per_page=1>; rel="prev",
        <https://www.bookingsync.com/api/v3/rentals/search?page=4&per_page=1>; rel="last"
      X-Total-Pages:
      - '4'
      X-Total-Count:
      - '4'
      X-Per-Page:
      - '1'
      Etag:
      - W/"a406e43aa74884c129e821dde8e1b2ce"
      Cache-Control:
      - max-age=0, private, must-revalidate
      P3p:
      - CP="OTI DSP COR CUR ADMo DEVo TAI PSAi PSDi IVAi IVDi CONi HISi TELi OTPi
        OUR SAMi OTRo UNRo PUBi IND UNI STA"
      Set-Cookie:
      - ahoy_track=true; path=/; secure
      - ahoy_visit=20f0a968-3192-4715-a8fe-761aa81bec62; path=/; expires=Fri, 16 Dec
        2016 10:31:25 -0000; secure
      - ahoy_visitor=7bb879b7-08b6-4668-82fb-79b02187d489; path=/; expires=Sun, 09
        Dec 2018 10:31:25 -0000; secure
      X-Request-Id:
      - ff377d9f-a14a-4e78-a9a7-a1e5116e7392
      X-Runtime:
      - '0.266652'
      Strict-Transport-Security:
      - max-age=31536000
    body:
      encoding: UTF-8
      string: '{"links":{"rentals.rentals_fees":"https://www.bookingsync.com/api/v3/rentals_fees/{rentals.rentals_fees}"},"rentals":[{"links":{"rentals_fees":[]},"id":13275,"currency":null,"initial_price":null,"final_price":null,"updated_at":"2016-12-07T12:35:09Z","taxes":[],"price_details":{"taxes":[],"fees":[]},"price_to_pay_now":null}]}'
    http_version: 
  recorded_at: Fri, 09 Dec 2016 10:31:25 GMT
recorded_with: VCR 3.0.3
